G04 #@! TF.FileFunction,Soldermask,Top*
%FSLAX46Y46*%
G04 Gerber Fmt 4.6, Leading zero omitted, Abs format (unit mm)*
G04 Created by KiCad (PCBNEW 4.0.7) date Mon Jan 22 17:56:54 2018*
%MOMM*%
%LPD*%
G01*
G04 APERTURE LIST*
%ADD10C,0.100000*%
%ADD11R,2.400000X4.000000*%
%ADD12O,2.400000X4.000000*%
%ADD13R,3.000000X3.000000*%
%ADD14C,3.000000*%
%ADD15R,2.000000X2.000000*%
%ADD16C,2.000000*%
%ADD17O,2.000000X2.000000*%
%ADD18O,2.400000X1.600000*%
%ADD19R,2.200000X2.200000*%
%ADD20O,2.200000X2.200000*%
%ADD21R,2.600000X2.600000*%
%ADD22O,2.600000X2.600000*%
%ADD23C,4.464000*%
%ADD24C,1.920000*%
%ADD25R,1.920000X1.920000*%
G04 APERTURE END LIST*
D10*
D11*
X111125000Y-93345000D03*
D12*
X116125000Y-93345000D03*
X121125000Y-93345000D03*
X126125000Y-93345000D03*
X131125000Y-93345000D03*
X136125000Y-93345000D03*
X141125000Y-93345000D03*
X146125000Y-93345000D03*
X151125000Y-93345000D03*
X156125000Y-93345000D03*
X161125000Y-93345000D03*
X166125000Y-93345000D03*
D13*
X121285000Y-129540000D03*
D14*
X115285000Y-129540000D03*
X118285000Y-134240000D03*
D15*
X163830000Y-117475000D03*
D16*
X161830000Y-117475000D03*
X164465000Y-123190000D03*
X159465000Y-123190000D03*
X109855000Y-113665000D03*
X114855000Y-113665000D03*
X118110000Y-121920000D03*
X118110000Y-116920000D03*
X156210000Y-125730000D03*
X156210000Y-120730000D03*
X158750000Y-112395000D03*
D17*
X148590000Y-112395000D03*
D16*
X148590000Y-107950000D03*
D17*
X158750000Y-107950000D03*
D18*
X134670000Y-125730000D03*
X142190000Y-125730000D03*
X134670000Y-118110000D03*
X142190000Y-118110000D03*
X134670000Y-113030000D03*
X142190000Y-113030000D03*
X134670000Y-107950000D03*
X142190000Y-107950000D03*
D19*
X158115000Y-130810000D03*
D20*
X156415000Y-134510000D03*
X154715000Y-130810000D03*
X153015000Y-134510000D03*
X151315000Y-130810000D03*
D21*
X123190000Y-107315000D03*
D22*
X123190000Y-117475000D03*
D23*
X166370000Y-107950000D03*
X111125000Y-137795000D03*
X111125000Y-107950000D03*
X166370000Y-137795000D03*
D24*
X113030000Y-119380000D03*
X113030000Y-116840000D03*
D25*
X113030000Y-121920000D03*
M02*
